curl -X GET --header 'Accept: application/json' 'http://127.0.0.1:8080/optimizer'
curl -X DELETE --header 'Accept: application/json' 'http://127.0.0.1:8080/optimizer/5PN2qmWqBl'
curl -X POST --header 'Content-Type: application/json' --header 'Accept */*' -d "@data.json" 'http://127.0.0.1:8080/model/5PN2qmWqBl'
