{
	"framework": "OR",
	"classType": "LP",
	"package": "OR-TOOLS",
	"model": "test_lp_mps",
	"model_format": "MPS",
	"model_data": "",
	"use_file_descriptors": false,
	"model_descriptor":
	"NAME          TESTPROB\r\nROWS\r\n N  COST\r\n L  LIM1\r\n G  LIM2\r\n E  MYEQN\r\nCOLUMNS\r\n    XONE      COST                 1   LIM1                 1\r\n    XONE      LIM2                 1\r\n    YTWO      COST                 4   LIM1                 1\r\n    YTWO      MYEQN               -1\r\n    ZTHREE    COST                 9   LIM2                 1\r\n    ZTHREE    MYEQN                1\r\nRHS\r\n    RHS1      LIM1                 5   LIM2                10\r\n    RHS1      MYEQN                7\r\nBOUNDS\r\n UP BND1      XONE                 4\r\n LO BND1      YTWO                -1\r\n UP BND1      YTWO                 1\r\nENDATA\r\n"
}
